{
  "Report": {
    "Empty": "<h1>Empty list of shapes!</h1>",
    "Title": "<h1>Shapes report</h1>",
    "Figures": {
      "Scuare": {
        "Plural": "{quantity} Scuares | Area {area} | Perimeter {perimeter} <br/>",
        "Singular": "{quantity} Scuare | Area {area} | Perimeter {perimeter} <br/>"
      },
      "Circle": {
        "Plural": "{quantity} Circles | Area {area} | Perimeter {perimeter} <br/>",
        "Singular": "{quantity} Circle | Area {area} | Perimeter {perimeter} <br/>"
      },
      "EquilateralTriangle": {
        "Plural": "{quantity} Triangles | Area {area} | Perimeter {perimeter} <br/>",
        "Singular": "{quantity} Triangle | Area {area} | Perimeter {perimeter} <br/>"
      },
      "Trapeze": {
        "Plural": "{quantity} Trapezoids | Area {area} | Perimeter {perimeter} <br/>",
        "Singular": "{quantity} Trapeze | Area {area} | Perimeter {perimeter} <br/>"
      },
      "Rectangle": {
        "Plural": "{quantity} Rectangles | Area {area} | Perimeter {perimeter} <br/>",
        "Singular": "{quantity} Rectangle | Area {area} | Perimeter {perimeter} <br/>"
      }
    },
    "Resumen": {
      "Total": "TOTAL:<br/>",
      "Shapes": "shapes",
      "Perimeter": "Perimeter",
      "Area": "Area"
    }
  }
}